https://forums.digitalpoint.com/,other
http://www.dmoz.nl/,other
http://www.goom.nl/,nl
http://www.beste-startpagina.nl/,nl
http://www.linksvoorjou.nl/,nl
http://www.zoekenstart.nl/,other
http://www.westiehotlinks.nl/,other
http://www.jouwportaal.nl/,nl
http://www.linkruilen.nl/,other
http://www.linkparadijs.nl/,nl
http://www.linkskoerier.nl/,nl
http://www.linktip.nl/,nl
http://www.winnen.be/,nl
http://www.webcollectie.be/,other
http://www.websiteartikelen.nl/,nl
http://www.phpld.nl/,nl
http://www.zoeksite.nl/,other
http://www.nldir.com/,other
http://www.linkpages.nl/,nl
http://www.web-directories.ws/,other
http://www.ekudos.nl,other
http://www.linknet.be,nl
http://www.uniekbegin.nl/,nl
https://twitter.com/digitalpoint,other
https://outgress.com/portals/,other
https://inmateintake.com,other
https://www.seroundtable.com/google-not-indexing-crawling-new-content-32606.html,other
https://QwikAd.com,other
https://www.bedrijfstelefoongids.nl/,nl
http://www.nederlandbreedbandland.nl/,nl
https://www.strategisch-beleggen.nl/online-brokers/binckbank.html,nl
https://www.foontje.nl/abonnementen-vergelijker.html,nl
https://www.hbscarcleaning.nl/,nl
https://www.snowzone.nl/blog/skigebieden/frankrijk/,nl
https://www.webzorg.nl/zorgvergelijker.html,nl
https://www.exclusiefverspreiden.nl/,nl
https://www.wielermagazine.nl/blog/fietstrainer-kopen-koopgids-voor-jouw-beste-keuze/,nl
https://eerstjames.nl/,nl
https://www.hypotheekadviseurvergelijk.nl/,nl
http://www.amusementpagina.nl/,nl
https://www.vakantiehuishurenonline.nl/,nl
https://www.besteljekorting.nl/,nl
http://www.onlinefruitautomaat.net/luckland.html,nl
http://www.spelletjes-nl.nl/,nl
https://www.alleopleidingenencursussen.nl/blog/aanbieders/nti/,nl
http://www.gokkast.pro/online-casino-reviews/slotsmillion.html,nl
https://www.youstyle.nl/shops/,nl
http://www.rome-casino.eu/pokerroom-reviews/888-poker.html,other
http://www.onlinegokkast.com/online_casino_gids/spinia.html,nl
https://www.droomvrouwenverleiden.nl/seks-standjes/,nl
https://www.onlinecasinotop20.com/,nl
http://www.gokkasten.info/online-casino/betamo-casino.html,nl
https://www.energie51.nl/energie-vergelijker/,nl
https://www.boekhoudingenadministratie.nl/boekhoudsoftware-vergelijken.html,nl
https://www.transip.eu/knowledgebase/entry/284-start-sending-receiving-email-domain/,other
https://www.linqhost.nl/high-performance-webhosting/,nl
https://www.samonlinemarketing.nl/linkbuilding-uitbesteden/,nl
https://www.etikettenkoning.nl/,nl
https://www.1box.nl/,nl
https://www.havic-kantoormeubelen.be/,nl
https://www.vanuffelen.nl/makelaar-helmond,nl
https://www.prefabhousing.nl,nl
https://www.puurkozijn.nl/kozijnen-eindhoven/,nl
https://www.bakxwagenaar.nl/werkgever/overbakxwagenaar/onze-locaties/arbodienst-venlo/,nl
https://www.kozijnprijsvergelijk.nl,nl
https://www.shutterkoning.com/nl/goedkope-shutters/,nl
https://www.havic-kantoormeubelen.nl/,nl
https://avondbezorging.com,nl
https://www.besteonlinecasinobonus.com/,nl
https://www.pretparkennederland.nl/efteling-parkeren/,nl
http://www.mediasolutions.nl/,nl
https://www.saunametkorting.nl,nl
https://www.kunstgraseindhoven.nl/,nl
http://www.aquafoam.nl,other
https://www.isolatieprijsvergelijk.nl/spouwmuurisolatie/,nl
https://www.jobbybid.com,other
https://www.onlinekledingshops.nl,nl
https://roomraccoon.pt,other
https://www.spantcongrescentrum.nl/,nl
https://www.officecity.nl/kantoor-stoelen/ergonomische-bureaustoelen.html,nl
https://www.blmc.nl/interim-management/interim-crisismanagement/,nl
https://roomraccoon.com,nl
https://www.elive.nl/zakelijke-telefonie/,nl
https://www.fortevenementen.nl/bedrijfsuitje-winter/,nl
https://www.labex.nl/industriedeuren.html,nl
https://www.alleeninkt.nl/,nl
https://www.wasmachinealmere.nl/,nl
https://www.bscc.nl/,nl
https://brflex.nl,nl
https://www.tool-temp-benelux.nl,nl
https://www.vroomzuigtechniek.nl/zandzuigen,nl
https://www.gertpater.nl/auto-leasen/financial-lease-auto/,nl
https://autosiero.nl/7-persoons-auto,nl
https://www.teamly.nl,nl
https://www.verhuisbedrijfdrechtsteden.nl/verhuisbedrijf-rotterdam/,nl
https://www.traffyc.nl,nl
https://www.autosleutelpoint.nl/,nl
https://www.gulrijopleidingen.nl/,nl
http://www.boekopinternet.be,nl
https://www.florealgroup.be/nl,nl
https://neuschwansteintickets.nl,nl
https://amsterdamtaxicentrale.com,nl
https://dubaigids.nl,nl
https://www.superwinkel.nl,nl
https://www.amsterdamsetaxiservice.nl/taxiamsterdam/,nl
https://winkelen.nl,nl
https://www.verkengriekenland.nl/badplaatsen-op-kreta/,nl
https://joggingbroek.com,nl
https://roomraccoon.it/,other
https://beeproger.com/app-bouwer/,nl
https://www.hypotheken-unie.nl/,nl
https://nl.visma.com/,nl
https://www.123lease.nl,nl
https://www.bruto-netto.nl,nl
https://www.bestel-chocolade.nl,nl
http://www.viridismundis.nl,nl
https://www.steenks-service.nl,nl
https://www.ontdekturkije.nl/informatie-over-turkije/reisadvies-turkije/,nl
https://factoring-offerte.nl/factoring-zzp/,nl
https://www.letselpro.nl/,nl
https://www.zwollefysio.nl,nl
https://www.wimhofmethod.com,other
https://www.letselschade-test.nl/,nl
https://www.gewichtberekenen.nl,nl
https://www.tandartshoofddorp.com,nl
http://www.kadaky.be,nl
https://viedenta.nl,nl
https://www.consumind.nl/energie/stap1.html,nl
https://www.afvalcontainerbestellen.nl,nl
https://leefjedharma.nl,nl
https://www.strokengordijnen.net,nl
https://www.slotenmakersonam.nl,nl
https://www.slotenmakergerard.nl,nl
https://www.mijnwebwinkel.nl/webwinkel-gesloten,nl
https://www.123woontrends.nl,nl
https://witgoedmonteur-amsterdam.nl,nl
https://www.afzetbak.nl/afvalcontainer-huren,nl
https://www.cf-kunststofprofielen.nl,nl
https://www.noordmantapijt.nl/laminaat/,nl
https://marasol.nl/zonwerende-rolgordijnen/,nl
https://www.kastenstudio.eu/wandkast-op-maat/,nl
https://www.afvalbakkenwinkel.nl,nl
https://www.metalen-wanddecoratie.nl/,nl
https://www.postcodezoekmachine.nl,nl
https://www.pand16.nl,nl
https://www.marmer-tegels.nl,nl
https://www.javelinict.nl/systeembeheer/tilburg/,nl
https://www.woordentellen.com,nl
http://www.dubbt.com,nl
https://www.namenbetekenis.nl,nl
https://www.seo-snel.nl/diensten/,nl
https://www.stractive.nl/linkbuilding-uitbesteden/,nl
https://www.websitedirectory.nl,nl
http://www.hetjongerenonderzoek.nl,nl
https://www.bouw-radio.nl,nl
https://www.redcelebration.com,nl
https://www.beautyandbooksmagazine.nl/books-2/6-dingen-die-je-absoluut-niet-op-jouw-website-wil-doen/,nl
https://www.epdm24.nl,nl
https://www.hoes.be,other
https://bujostore.nl/,nl
https://www.iboxz.nl,nl
https://dealsaurus.nl,nl
https://www.nldamp.nl,nl
https://www.phonegigant.nl,nl
https://www.leuk-cadeau.nl,nl
https://www.allewijnen.nl,nl
https://www.deretourboer.nl,nl
https://www.gefeliciteerdbloemen.nl,nl
https://www.24dagaanbieding.nl,nl
https://www.couturefashion.nl/designers/philipp-plein,nl
https://www.zorgbedonline.nl/hoog-laag-bedden/,nl
https://sportshowroom.nl/adidas-ultra-boost,nl
https://www.b55.nl/golfartikelen,nl
https://f1nieuws.nl,nl
https://www.etalagepoppengigant.nl,nl
https://www.beingthere.nl/blue-industry,nl
https://advocatenkantoren.nl,nl
https://www.bezwaarmaker.nl,nl
https://slotenmakersnel.nl/slotenmaker-hilversum/,nl
https://www.hypotheekrentevast.nl,nl
http://www.webshopbetrouwbaar.nl/amazon-nederland/,nl
https://deboerheeg.nl/apparatenbouw/,nl
https://www.vergelijkenvanreisverzekeringen.nl,nl
https://www.smartphoneprotect.nl/,nl
https://www.energievergelijken.nl,nl
https://www.providers.nl,nl
https://www.energieleveranciers.nl/energie-vergelijken,nl
https://navayo.nl,nl
https://www.bouwkundigerotterdam.nl,nl
https://www.niow.nl/taaltrainingen/cursus-frans/open-trainingen,nl
http://www.relatietherapie.nl,nl
https://salesengines.nl,nl
https://www.epassion.nl,nl
https://www.opzoeknaarjou.nl/home/christelijke-datingsite.htm,nl
https://www.rchobbyparts.nl/nl/,nl
https://doendurvenofwaarheid.nl,nl
https://www.legoexpert.nl/lego-technic,nl
http://www.relatietherapie-weekend.nl/relatietherapie/,nl
https://wij.zorgen.nu/zij-instroom-zorg,nl
http://www.soortenbank.nl,nl
https://www.hondenwinkelonline.nl/hondenkussens/,nl
https://roomraccoon.co.za/,other
http://www.advocatenautomatisering.nl/cgi-sys/defaultwebpage.cgi,other
https://miaustore.com/nl/,nl
https://www.mylermedia.nl,nl
https://www.tfk-installatieservice.nl/,nl
https://www.ict-store.nl/categorie/2563/hp-probook.html,nl
https://nationaalhuidcentrum.nl/behandelingen/liposuctie/,nl
https://www.10beste.com/beste-autostoeltje/,nl
https://www.sam-it-services.nl,nl
https://www.autovendi.nl,nl
https://www.traffictoday.nl,nl
https://www.superrood.nl,nl
https://adsource.nl,nl
https://www.marketingspecifiek.nl/seo-hoger-in-google,nl
http://www.domeinkopen.org,other
http://www.linearecta.nu,other
http://www.allesin1pakket.org,nl
https://onlinemarketingagency.nl,nl
https://www.vwebdesign.nl/Amsterdam-31,nl
https://www.123bestdeal.nl,nl
https://www.flerque.nl/internetbureau-den-haag/,nl
https://serviceright-autos.nl,nl
https://www.maq2.nl,nl
https://www.stiply.nl,nl
https://www.one4marketing.nl/inbound/marketing,nl
https://www.affiliatemarketingnederland.nl/affiliate-programma/,nl
https://www.webwinkelenvanuitnederland.nl/amazon-fire-stick/,nl
https://www.volgendegeneratie.nl/affiliate-marketing/affiliate-marketing-revolutie/,nl
https://www.yipyip.nl,nl
https://websitesvoormkb-ers.nl,nl
https://webexact.nl,nl
https://damimarketing.nl/marketing-bureau-zeist/,nl
https://www.gokkeninbelgie.be/unibet-registreren/,nl
https://www.sauna4you.nl/hottub-overzicht/,nl
http://www.simonlyupdate.nl/youfone-sim-only/,nl
https://landhoteldiever.nl/massage-in-hotel/,nl
https://website-offertes-vergelijken.nl,nl
http://www.mobiele-abonnementen-vergelijken.nl,nl
http://www.mobielabonnementvergelijken.net,nl
http://simonly.today,nl
http://eensim.nl,nl
https://www.lijstentoko.nl,nl
https://www.trouwautosverhuur.nl,nl
http://vrijgezellenfeestintilburg.nl,nl
http://www.abonnementmobiel.nl,nl
https://trouwautos.nl,nl
https://nightingaleexclusive.com,other
http://www.date2shine.nl,other
https://problemcar.nl/forum/category:citroen,nl
http://www.ajuweliers.nl,other
https://juwelia.nl,nl
http://www.timeforest.nl,nl
https://kraek.com,other
https://www.cosmeticareviews.nl,nl
https://boomstronkverwijderen.nl,nl
https://leukedatingsite.nl/christelijke-dating/,nl
https://www.kunstgrashasselt.nl,nl
https://www.onlinegroen.nl/l/leibomen.html,nl
https://www.zelfeenkippenhokmaken.nl,nl
https://www.petmania.nl/beste-hondenzwembaden/,nl
https://www.partytent-online.nl/partytenten,nl
https://www.tuinmechanisatie.nl,nl
https://greenart.nl/tuinarchitect/,nl
http://www.mijnmaffia.nl/Untouchable,nl
http://www.discountcoupons.be,nl
https://www.watertank.nl,nl
http://www.gratisblackjack.net,nl
http://www.coolekorting.nl,nl
https://www.kentekencheck.net/rdw-ovi/,nl
https://webshopacties.nl,nl
https://www.testnugratis.nl,nl
https://www.pumbo.nl/boek-uitgeven,nl
https://www.fabiusopleidingen.nl/opleidingen/online-marketing-medewerker_1698/,nl
https://www.bestevoormoeders.nl,nl
https://prijsvragen247.nl,nl
https://gratisproducten247.nl,nl
http://www.hiqen.nl,other
http://www.jaffar.nl,nl
http://www.barista-cursus.nl,other
https://www.papegaaienblog.nl/papegaaien-cursus/,nl
https://gratiswinactie.nl,nl
https://kettlebellsportschool.nl,nl
https://www.verkeersschoolderidder.nl,nl
https://www.proefschriftmaken.nl/nl/proefschrift/dissertatie/,nl
https://www.motorway.nl,nl
https://www.theoriecursusdenhaag.nl,nl
https://www.cursuszelfvertrouwenvergroten.nl/meer-zelfvertrouwen/,nl
https://www.counselling.nl/opleidingen/basis-coaching-en-counselling/,nl
https://www.trainingsvijver.nl/cursus-excel-rotterdam/,nl
https://www.rijschoolbouda.nl/rijschool-katwijk/,nl
https://www.rijschoolclever.nl,nl
https://www.turbodrive.nl,nl
https://www.riffi.nl,nl
https://www.demo-opleidingen.nl,nl
https://estheclinic.nl/pages/acne-littekens-laseren,nl
https://www.drive4sure.nl/rijschool-amsterdam-zuidoost/,nl
https://www.rijschoolslaagaltijd.nl,nl
https://ptssdefensie.nl,nl
http://www.haarperfect.nl/haartransplantatie-turkije/,nl
http://www.omgaanmetstress.net,other
https://bestecbd.nl,nl
https://www.doktermedicijn.nl/medicijn-overzicht/,other
https://www.kafea.nl,nl
https://www.easyfitmeals.nl,other
https://www.nrgfitness.nl,nl
https://www.laatjeogenlaseren.nl,nl
https://www.visusoogkliniek.nl/behandelmethodes/lens-implantatie/,nl
https://vdpool.nl/product/dampenenzo-nl/,nl
https://www.faalkracht.nl/faalangst-training/,nl
https://www.fitnesskoerier.nl/cardio/crosstrainer/,nl
https://www.floaterlaser.com,nl
https://www.schimmelinfectie.net,nl
https://visushaarkliniek.nl/tarieven/,nl
https://amstelzijdekliniek.nl,nl
https://www.haptotherapieophetwater.nl/individuele-therapie-en-relatietherapie-haptotherapie-op-het-water/haptonomie/,nl
https://www.herba4everyone.nl,nl
https://www.slimroken.nl,nl
https://www.lekkeremaaltijd.nl,nl
https://www.vrouwenannonu.nl,nl
https://www.allesvoorkefir.nl/de-bewezen-gezondheidsvoordelen-van-kefir/,nl
https://www.vanslechtnaarbeterslapen.nl/slaapproblemen-oplossen-zonder-medicatie/,nl
http://www.onlinelaminaatwinkel.nl,nl
https://www.glasbestellen.nl,nl
https://dutchnaturalhealing.com/nl/cbd-olie,nl
https://www.zitzakkenstore.nl,nl
http://www.econ-woningbouw.be,nl
https://tegelkorting.nl/products/winckelmans-tegels,nl
https://www.apachecrossfit.nl/crossfit-blog/de-voordelen-van-crossfit/,nl
https://www.wheelylift.com/wlp/fietsenrek-schuin/,nl
http://www.ledlampengoedkoop.nl,nl
http://www.vergelijkuwvastelasten.nl,nl
https://ea-sigaret.nl/e-liquid-kopen/,nl
http://www.ledstripleverancier.nl/cgi-sys/defaultwebpage.cgi,other
http://www.leds-depot.be,nl
https://promolijn.nl/productcategorie/kunstbloemen/,nl
http://www.kornuyt.nl,nl
https://www.decoratieinhuis.nl,nl
https://www.regiocontainer.nl,nl
https://www.nn.nl/Particulier/Hypotheken/Maximale-Hypotheek-Berekenen.htm,nl
https://www.cirkelzaagkopen.nl,nl
https://www.nieuwwonenutrecht.nl,nl
https://www.tapijtenlaminaatdirect.nl,nl
https://www.designerchairs.nl,nl
https://jcvankessel.nl,nl
https://www.bouwradiovergelijken.nl/beste-bouwradio-top-5/,nl
https://www.kozijnen-webshop.nl,nl
https://www.artedesigno.nl/kunst/wandobjecten/,nl
https://www.kookhuis.nl/keukens/landelijke-keukens/,nl
https://www.zerogas.nl,nl
https://www.betondingen.nl/opsluitbanden/,nl
https://www.aronson.com/object-categories/platesdishes/,other
https://remeonbeveiliging.nl,nl
https://www.millstore.nl,nl
https://dakservicereijnders.nl,nl
https://www.babyfoonvergelijker.nl,nl
https://hippemus.nl,nl
https://akoestiekopwerk.nl/oplossingen/akoestiek-thuis/,nl
https://www.dakdekkers-vanleeuwen.nl/dakdekker-rotterdam/,nl
https://www.dakdekkerijrotterdam.nl,nl
https://www.dakdekkerijamsterdam.nl,nl
https://zodiac-horoscoop.nl,nl
http://www.pinksteren.net,other
https://www.elektrischeproducten.nl,nl
https://www.bestcamp.nl/belgie,nl
http://www.getrotterdam.nl,nl
http://www.camping-costa-brava.nl,nl
http://www.vakantie-plan.nl,other
http://www.vliegtuigonline.nl,nl
https://outdoor-and-travel.nl/,nl
https://groepennijmegen.nl,nl
https://www.brotherlouis.nl/reistips-backpacken/thailand,nl
https://www.vlieglesdeal.nl,nl
https://www.amsterdamhostelorfeo.com,other
https://www.aviclaim.nl,nl
https://www.amsterdamhostelleidseplein.com,other
https://www.sri-lanka-rondreisblog.nl/sri-lanka-kandy/,nl
https://www.ikwilvanmijnautoaf.nl/caravan-verkopen,nl
https://www.vakantie-check.nl/parkeren-bij-de-efteling/,nl
https://cbdenzo.nl,nl
http://1korting.nl,nl
http://www.sexy-lingerie-webwinkel.nl,nl
http://badkamerventilatorshop.nl,other
http://www.brandkids.nl,other
https://www.bestevoormijntuin.nl,nl
https://www.airportparkerenvergelijken.nl/valet-parkeren-dusseldorf/,nl
http://www.triumphonly.nl,other
http://badkamerventilator.net,nl
http://www.led-tl-wereld.nl,other
http://www.primarkonlineshop.eu,other
https://www.kunstgrasdirect.nl,nl
https://www.instacosmetic.com,nl
https://www.donzendekbed.nl,nl
https://www.sacha.nl/damesschoenen/sneakers/,nl
https://zwangerschapskussens.com,nl
https://www.manfield.com/heren/gespschoenen/,nl
https://www.kantoorartikelenexpress.nl/categorieen/470/kopieer-en-fotopapier.html,nl
https://www.japoto.nl,nl
https://clavis.nl/digitale-pianos,nl
https://www.prijor.nl/stofzuiger-onderdelen/,nl
https://www.muco.nl,nl
https://www.petitmerci.nl,nl
https://www.hupsa-kindermode.be,nl
http://www.juridischvertaalwerk.nl,other
https://www.premiumbikes.nl/elektrische-fiets/,nl
https://www.elmagnifique.nl,nl
https://www.allesoverbrillen.nl,nl
http://www.modamoda.nl,nl
http://www.123fashionblog.nl,nl
http://www.lingerie-avenue.nl,nl
http://kaftanqueen.nl,other
http://www.kortingscodehm.com,nl
http://www.iwearfashion.nl,other
https://www.compleetverkleed.nl,nl
https://www.dazly.nl/Sexy-Topjes,nl
https://kerstmutsen.nl,nl
https://mx-discount.nl/crosskleding.html,nl
https://www.institutacorpsparfait.be/page/nos-partenaires-web.html,other
https://www.sholox.nl,nl
https://www.snelgeldlenenbinnen10minuten.eu,nl
https://www.zorgkiezer.nl,nl
https://www.vanderzwaard.nl/diensten/dreigend-faillissement/,nl
http://www.ziektekostenverzekering.net,other
https://www.tipsvoorveiligheid.nl,nl
https://www.reparatieaanmijnauto.nl,nl
https://www.uitvaartverzekeringtop3.nl,nl
https://www.aansprakelijkheidsverzekering.com,nl
https://www.netpolis.nl,nl
https://www.wa-verzekering.org,nl
https://www.uitvaartverzekering-vergelijken.net/18-jaar-welke-uitvaartverzekering-sluit-af/,nl
https://www.autoverzekering-vergelijken.com,nl
https://www.yezzer.nl/verzekeringen/arbeidsongeschiktheidsverzekering/info/aov-vergelijken,nl
https://roadguard.nl/pechhulp-nederland,nl
https://www.poekkepoekshop.be,nl
https://www.fransebulldogblog.nl/franse-bulldog-pup/,nl
http://www.simulator-games.nl,nl
https://www.top-40.nl,nl
https://schoolpennen.nl,other
https://www.sticker.nl,nl
https://www.playstation5blog.nl/playstation-5-pro/,nl
https://meprint.nl,nl
http://ovantis.nl,nl
http://www.techaanbiedingen.nl,other
http://www.ekoffers.nl/sale,nl
https://www.scheerapparaatgids.nl/top-5-neushaartrimmer/,nl
https://www.koffiebasis.nl/nespresso-ontkalken-in-8-stappen/,nl
http://www.etassen.nl,nl
http://www.hoverboardvergelijken.nl,other
http://www.dashcams4you.nl,other
https://www.tafels99.nl,nl
https://www.flacko.nl,nl
https://www.lampionwebshop.nl,other
https://www.drone123.nl,nl
https://topspandoek.com,nl
https://www.koffiebekers.nl,nl
https://www.everydayhookah.com/nl/,nl
https://www.dejonghandelsonderneming.nl,nl
https://www.plasticz.nl/nl/filament/,nl
https://www.garderobe.nl,nl
https://hoeteontkalken.nl/senseo-ontkalken-2/,nl
https://www.nespressoontkalken.nl,nl
https://testamentopstellen.eu,nl
https://www.gaveschilderijen.nl,nl
https://probid.nl/europese-aanbesteding/,nl
https://www.cryptomunten.net,nl
https://biflatie.nl,nl
https://www.bedrijfsbemiddeling.nl/bedrijvenmarkt/bedrijven-te-koop/,nl
https://aandelenkopen.nl,nl
https://www.bitcoinexchangenederland.nl,nl
https://cryptoclan.nl,nl
https://123tinki.com/nl-nl/hondennamen,nl
https://www.mijnvogaanvragen.nl,nl
http://www.flexter.nl,nl
http://www.lockpickcenter.nl,nl
http://www.hondennamen.info,nl
https://cryptobeginner.nl,nl
https://www.steenks-service.de/umreifungsmaschine/,other
https://www.swinging.nl/zanger-huren/,nl
https://www.oldtimerhuren.net,nl
https://www.credifin-nederland.nl,nl
https://www.fixmywitgoed.nl/wasmachine-reparatie/,nl
http://www.wegenbelastingberekening.nl,nl
https://www.intellectueeleigendom.nl/merkenbureau/,nl
https://www.intellectueeleigendom.be,nl
https://verkeersborden.nu/alle-verkeersborden,nl
https://www.carosatelier.nl/haakpatronen/,nl
https://www.kentekenplaatdrukken.nl,nl
https://www.magikalrijden.nl,nl
https://www.country-muziek.nl/artiesten/,nl
https://www.labradorhond.nl/labrador-voeding/,nl
https://erosmania.nl,nl
https://www.qapqa.com,nl
https://www.lekker-ite.nl,nl
https://www.autonaardesloop.nl/schadeauto-verkopen/,nl
https://www.besteloffice.nl/product/microsoft-office-2019-professional/,nl
https://companyfilms.nl,nl
https://smartific.nl/wietzaadjes/,nl
https://www.emations.nl/diensten/infographic-laten-maken/,nl
http://www.aerialsolutions.be/een-professionele-drone-kopen/,nl
http://www.wifirepeater.nu,nl
http://www.internet-goedkoop.nl,nl
https://office-licentie.com,nl
http://www.directory-for-submission.com,other
https://www.kwaliteitweb.nl,nl
https://www.vanstijl.nl/online/website-laten-maken/,nl
http://www.seospecialistexpert.nl,nl
https://suprevo.com/internetbureau-den-haag/,nl
https://www.friebie.nl,nl
http://www.allesineenpakketten.com,nl
http://www.goedkoopwebsitemaken.be,nl
https://www.gigawebdesign.com,nl
http://allesineenpakketten.nl/internet-en-tv/,nl
https://www.voetbalnieuws.nu,nl
https://www.jkc-media.nl/wordpress-website-laten-maken,nl
https://www.dressmyiphone.nl,nl
http://www.vergelijk-simonly.com,nl
http://www.appsopcomputer.com,other
https://splitshop.nl,nl
http://www.eigenhuishongarije.nl,nl
http://www.deslotenmaker.com,other
https://www.thehaguerealestate.nl,nl
http://www.portadeuren.nl/buitendeuren/balkondeuren/,other
http://www.koolmonoxidemelder.eu/,nl
http://www.josokkerman.nl/,nl
https://www.wasmachinebreda.nl/witgoed-reparatie-roosendaal/,nl
https://www.hoekwater.nl/verlichting/led-verlichting/,nl
https://www.wasmachineeindhoven.nl,nl
https://www.wasmachineutrecht.nl,nl
https://www.witgoedserviceholland.nl,nl
https://www.laminaatgratisgelegd.nl,nl
https://www.ruwette.nl,nl
https://www.sr-vloeren.nl,nl
https://www.onsinterieur.nl,nl
https://www.jobs.gbs-international.com/studenten-hbo-universiteit,nl
http://www.percentage-berekenen.be,nl
https://www.kunstgrasoutletfriesland.nl,nl
https://www.kunstgrasoutletoverijssel.nl,nl
https://www.bredevoetbalschoenen.nl,nl
https://www.leningdirekt.nl/minilening/,nl
http://www.leninggeld.be,nl
https://leaseauto.nl,other
https://www.leasytime.nl/busje-huren-amsterdam,nl
https://www.nedcars.nl/auto-huren/,nl
http://www.koopfinasteride.nl,nl
https://www.diabetescentrale.nl,nl
https://www.yvonnevandevorst.nl,nl
http://bluecollarhealth.co.za,other
https://www.relatietherapienederland.nl/locaties/relatietherapie-amstelveen/,nl
https://www.dnatestvergelijken.com,nl
https://pijncoach.nl,other
https://actiekortingscodesite.nl,nl
https://www.reviewss.nl/cursussen/bol-masterclass-review/,nl
https://www.artofmediums.be,nl
http://www.jiba.nl/,other
https://www.loveandmarriagespellz.com,other
https://www.puglia.nl,nl
https://www.riendewolf.nl/kamperen/slaapartikelen/slaapzakken/,nl
https://www.nerja.tips/frigiliana/,nl
https://www.malagatips.nl/hotel-malaga/,nl
https://www.rondreisandalusie.nl,nl
https://www.abudhabi.nl,nl
https://www.valencia.tips/7-tips-stedentrip-valencia/,nl
https://www.allesvoorjouwdier.nl,nl
https://www.fishermanspants.nl,nl
https://world-power-plugs.com,other
https://outdoortravelstore.nl,nl
http://suitsandties.nl/maatpak/,nl
https://www.loterijen-vergelijken.nl/kansspel/,nl
https://www.fashionchick.nl,nl
https://www.fcbarcelona.tips,nl
https://www.leelavadee.nl/ringen/zilveren-ring/,nl
https://www.horlogeloods.nl,nl
https://natuursieraad.nl,nl
http://www.datingsitesonline.be,nl
https://www.match50.nl,nl
https://praktijkwederzijds.nl/relatietherapie,nl
https://www.hezelburcht.com,nl
https://simpelstand.nl,nl
http://www.backupned.nl/tape-backup/,nl
https://www.wasmachineamersfoort.nl,nl
https://www.consumindfinance.nl/hoeveel-kan-ik-lenen-hypotheek,nl
https://danhoffinance.nl,nl
http://www.allriskverzekering.net,nl
https://www.creditcardmaatschappijen.nl/prepaid-creditcard/,nl
https://www.goedkoopstezorgverzekering.nl,nl
http://www.patiencespelletje.nl/,nl
https://www.verzekeringshop.nl/reisverzekering-vergelijken/,nl
https://www.ziektekosten-vergelijker.nl,nl
https://jouwspeeltuin.nl,nl
https://wijnhuisje.nl,nl
http://www.flowerrussia.com,other
http://www.ganzo-tools.nl/,other
http://shishamaster.nl,other
https://eurocave.nl/wijnkelderkoelingen/,nl
https://www.grandcruwijnen.nl,nl
https://www.real-madrid.nl/webshop/,nl
https://hobbypainter.nl/collections/diamond-painting,nl
https://www.vgtrading.nl/zit-sta-bureau,nl
http://www.htconemini2.nl,nl
https://www.devoetbalstore.nl,nl
https://orga.nl/helideck-lighting-system/norsok/,other
https://artiestenstal.nl,nl
http://www.rccs.eu/,nl
https://chodskydog.wgz.cz,other
http://roulette-systeme.blog,other
https://juliuskrechting.weebly.com/,other
https://www.123creditcardvergelijk.nl,nl
http://linkiads.nl,nl
https://www.one.com/en/websitebuilder?utm_source=hosted_by&utm_medium=hosted_by&utm_campaign=default,other
http://www.linki.nl/start-met-adverteren.html,nl
http://www.loom-bands.org,nl
https://7678p.com:8663/?register=1,other
https://245182.cc:8443/index.html?shareName=245182.cc,other
http://sf.898984.com/2112/jxxsyyycom.html,other
http://amtlf.com:7003/?qq528,other
https://5w72.vip,other
https://pojd447.cc:8443/index.html?shareName=pojd447.cc,other
http://cqfkty.com,other
https://5bfr.cn/?channelCode=23b7,other
https://t.me/xfrs888,other
http://www.linksite.eu/nl/,nl
http://LinkPages.be,nl
http://www.healthfoam.com,nl
https://www.applekopen.be,nl
https://www.mackopen.be/,nl
http://www.bancopunto.com,nl
http://www.vga-hdmi.nl,nl
http://www.minidp.nl,nl
https://monsterfollowers.com,other
https://www.biponline.be/,nl
https://www.chatwebsites.net/,other
https://laptopcomputerreparatiespecialist.nl/,nl
https://www.e-aanmaken.nl/,nl
https://www.escortdenhaag.nl/,nl
https://follower123.de/product/instagram-follower-kaufen/,other
https://www.z1.com.hr,other
https://www.link-directory.nl/,nl
http://speelmrgreen.nl/gratis-spelen/,other
https://www.hotchat.mobi/,other
http://www.rtlchat.com/,other
https://thecasinowizard.com/,other
https://www.netwerk-vlaanderen.be/,nl
http://totaalstart.nl,nl
https://www.linken.nl/,nl
http://startmix.nl,nl
https://www.linken.be,nl
https://www.startpaginas.nl,nl
https://uwplezier.nl,nl
http://www.allesineenpakkettenvergelijken.nl/,other
https://www.alles-in-een.net/vergelijken/,nl
http://www.chatwithstrangers.info/,other
http://www.chatroom2000.com/,other
http://www.chattengehen.com,other
https://www.dating-sites-vergelijken.nl/,nl
http://www.msichat.com,other
https://www.pepper.nl,nl
http://www.gay-chatroulette.nl,other
http://seksdatereviews.be,other
http://www.tinderdatingsite.nl,other
https://www.register.be/nl/domeinnaam/domeinnaam-registreren,nl
https://www.vimexx.nl/domeinnaam,nl
https://www.easyhost.be/nl/domeinnaam-kopen,nl
https://www.versio.nl/domeinnamen,nl
http://www.imseo.nl,other
http://www.libidoverhogen.nl/,nl
https://www.zipzoo.nl,nl
https://socialmediavolgers.nl/product/instagram-volgers-kopen,nl
https://likeskopen24.eu/,nl
https://simplevisitorcounter.info/,nl
https://www.seomarketingbureau.nl/,nl
https://www.combell.com/nl/domeinnamen,nl
https://www.mijn-website-maken.be,nl
https://www.dmca.com/Protection/Status.aspx?ID=9e82d05a-b11f-406a-ba49-56963769005c&refurl=https://onlinecasinoinformatie.com/&PAGE_ID=aHR0cHM6Ly9vbmxpbmVjYXNpbm9pbmZvcm1hdGllLmNvbS81&fo=t,other
https://www.getright.nl,nl
http://www.robsdomein.nl,nl
https://www.utilewebsites.nl/info/magento-programmeur/,nl
https://www.datingsitekeuze.nl/,nl
http://awg-global.com,nl
https://getbigmarketing.nl,nl
https://www.iqonline.nl/,nl
https://dutchconsultants.com/,nl
https://www.jakency.be/webdesign/leuven/,nl
https://webdesign-westland.nl,nl
https://www.purifymedia.nl/website/,nl
https://www.letstart.nl,nl
https://www.esmeelifestyle.nl/,nl
http://www.frozenfrog.nl,nl
https://www.rtrk.nl/,nl
http://www.iseenstartpagina.nl,nl
http://seksdatingsites.xxxlogs.nl/,nl
https://www.azwebdesign.nl/,nl
http://www.e-fumadores.eu,other
http://www.supreme-escorts.nl/,other
http://www.fotocadeaus.net,other
https://kortingscodelab.nl,nl
http://www.365londonescorts.co.uk,other
https://monkeymonster.nl/hosting-monkeymonster/,nl
https://poppers-onlinebestellen.nl/poppers-klein,nl
https://www.bdsm-shop.nl,nl
https://www.voice-over.agency,nl
https://www.vimexx.com/webhosting,nl
https://038.startpagina.nl,nl
https://www.index100.nl,nl
https://casinobird.nl/casinos/luckland,nl
https://www.start-pagina.net/,nl
https://www.zoekpunt.net/,nl
https://glasvezelkenner.nl,nl
https://highrollercasinos.online/nl/,nl
https://nederlandsegokkasten.com/online-casinos/,nl
https://www.overheidinfo.nl/mijn-werkmap/,nl
https://online-casinos.nl/,nl
https://www.genotsplekje.nl,nl
https://www.sterrenbeelden.nu/welk-sterrenbeeld-ben-ik/,nl
https://www.fruitkasten.net/,nl
https://www.bluetoothkoptelefoon.com/,nl
https://slimmespeakerinfo.nl,nl
https://www.vivacamera.nl/,nl
http://www.esigaretwebshop.com/,nl
https://roken.nl/,nl
https://www.vapekings.nl/,nl
https://www.laptopaanbieding.nl/,nl
https://www.tabletaanbieding.nl/,nl
https://www.maxilia.nl/usb-sticks-bedrukken/,nl
https://www.abonnementgsm.nl,nl
http://fingerprintresistant.com,other
https://www.gsmaccushop.nl/accessoires/kabels/usb-c-kabels/,nl
https://www.gsm-paradise.nl/,nl
http://mobiele-abonnement.nl,other
https://www.probello.nl,nl
http://www.phonecaseseurope.com/nl/,nl
https://www.tvexpert.nl,nl
http://www.smartphonekoning.nl,nl
http://www.abonnement-verlengen.com,other
http://www.drone-vizion.com/,other
https://www.telefoonvergelijken.nl/,nl
https://www.365cam.nl/,nl
https://www.zuiderveldaccountancy.nl,nl
https://www.toeslagenaanvragen.net,nl
http://vdbboekhouders.nl/,nl
http://www.onlinebeleggen.nl/online-brokers/,nl
http://www.succesvoltraden.nl,other
https://creditchecker.nl/creditcard/,nl
https://www.geldvisie.com,nl
http://www.levver.be,other
http://www.goldankauf-goldwaage.de,other
https://hypotheek-berekenen.appspot.com/,nl
http://www.incassobureauinschakelen.net/,nl
http://www.500eurolenen.nl,nl
http://www.geld-lenen-snel.com,nl
http://geldlenenadviseur.nl,nl
https://blockk.nl/bitcoin/,nl
https://www.topdom.nl,other
http://snelgeldlenenonline.org,nl
https://zorgverzekering-vergelijken.net/zorgvergelijker/,nl
https://www.dierenverzekering.nl,nl
https://www.goedkoopenergievergelijken.nl/,nl
https://www.verzekeringvergelijken.nu,nl
https://www.ikvergelijkhet.nl/zorgverzekering/,other
https://www.olieprijs.online,nl
https://www.123oudijzerprijs.nl/,nl
https://destift.nl/bitcoin-kopen-blox-weareblox-crypto-app-binance-killer/,nl
https://www.zorgverzekeringbesparen.nl/zorgverzekering-vergelijken/,nl
https://www.flexxvandas.nl/ondernemer,nl
https://kordaatondernemen.nl,nl
https://www.advocaat-bestuursrecht.nl/,nl
https://www.alles-in-1-pakket-vergelijken.nl/aanbieders/ziggo/ziggo-zakelijk/,nl
https://www.arbeidsrecht-advocaten.nl,nl
https://www.contractenrechtadvocaten.nl/,nl
https://www.echtscheidingsrechtadvocaten.nl,nl
https://www.advocaatletselschaderecht.nl,nl
https://www.advocaat-strafrecht.nl,nl
https://verweij-juristen.nl,nl
https://www.ondernemingsrechtadvocaat.nl,nl
https://faillissementsrechtadvocaten.nl/,nl
http://www.juridischelinks.nl,nl
https://ncm-bewindvoering.nl,nl
https://www.slotenmaker.nu/slotenmaker-den-haag/,nl
https://slotenmaker.mobi/,nl
https://www.slotenmaker-nellok.nl/locaties/utrecht/,nl
https://zakelijkekerstkaarten.nl/,nl
https://www.picoyellow.nl,nl
http://www.drukkerijatlantic.nl,other
http://www.loket20.nl,nl
https://www.unda-water.com,nl
https://legalista.nl,nl
https://vaststellingsovereenkomstjurist.nl,nl
http://www.lockerwinkel.nl,nl
https://projectvloerenmetpvc.nl,nl
https://bureaumagneet.nl,nl
https://www.nilannetherlands.nl,nl
https://chinese-webwinkel.nl/,nl
https://www.relatiegeschenken.nl/,nl
https://www.promostore.nl,nl
https://www.myformshrm.com/,nl
https://www.schoonmaakbedrijfacacia.nl/,nl
https://www.shiftbase.com/nl/,nl
https://www.hofstadrijopleiding.nl,nl
https://www.asbestinventarisatie.nl/,nl
https://www.actronics.fr/,other
https://www.hoyhoy.nl/autoverzekering/,nl
https://www.gepakt.nl,nl
https://directautohurencuracao.nl/,nl
https://www.autobanden-prijsvechter.nl/,nl
http://www.velgenshop.nl/,other
http://www.ex-lease-autos.nl/,nl
https://verkeersschool-rembrandt.nl/,nl
https://www.bandenthuis.nl,nl
https://www.taxinoordeinde.nl/,nl
http://www.multituningshop.nl/,nl
https://www.dyno-chiptuningfiles.com,other
https://www.private-lease-aanbiedingen.nl/merk/volkswagen/,nl
http://users.telenet.be/autoverzekering-vergelijken/,nl
https://hoverboardkopen.org/,other
https://www.rosfinance.nl/,nl
https://www.haagsesneltaxi.nl/,nl
https://secure.livechatinc.com/licence/9689690/v2/open_chat.cgi?web=qqemas,other
https://www.onlinebingo.website/,nl
https://www.winmetbingo.nl/casino-bingo,nl
http://bioscoop.in/,nl
https://lintenkopen.nl/tule-voor-tutu-rokjes/,nl
https://bedrukland.com/onze-diensten,nl
https://fuif.nl/uitnodiging-maken,nl
https://gokkenmetgeld.com/,nl
https://www.onlinecasinonieuws.com/,nl
https://www.casinosvergelijken.nl,nl
https://www.onlinecasino2go.com,nl
https://www.onlinecasinoxl.nl/casino-bonus,nl
http://www.onlinegokken.be/online-casino/,nl
https://www.hollandslivecasino.nl/,nl
http://www.supergokkasten.nl,nl
https://www.shopenvergelijk.nl,nl
https://www.silverspas.nl,nl
https://www.vlindertjes.nl,nl
https://damp-e.nl/,nl
https://www.shoesupply.eu/inlegzolen/,nl
http://www.supplementendirect.nl,nl
http://www.beste-e-bike.nl/,nl
http://www.qss-squash.nl/nl/squashracket,nl
http://www.golfles-amsterdam.com,nl
https://www.voetbalweddenonline.com/,nl
https://www.topbetcasino.nl/,nl
https://wemovesports.nl/,nl
http://blackjackspelenonline.com/,nl
https://www.freecellsolitaire.nl,nl
http://pokernederland.eu,other
http://www.onlinecasinoreview.be,nl
http://www.onlineroulettetips.info/,nl
https://fortnitekoopjes.nl/,nl
http://www.onlinespeelautomaten.info/,nl
http://www.eurogokkasten.com,other
https://www.bestecasino.nl/,nl
http://www.goksites.nu,nl
https://allgokkasten.nl,nl
http://casinospelenonline.be,nl
https://www.mahjongspelen.nl,nl
http://www.aankleedspelletjes.nl,other
http://www.binairepuzzel.nl,nl
https://www.weddenwk.nl/,nl
http://www.kookspelletjes.nl,other
http://www.gratiscasinozonderstorting.nl,nl
http://www.listingcasino.com/,other
http://racesimulatorhuren.com,nl
http://simplywild.info/,nl
https://fifacoinskopen.com,nl
http://random-runner.info/,nl
http://www.voetbalspelletjesonline.nl,other
https://fifacoinsdeals.nl,nl
https://fifapointsbuy.com,other
https://www.gokkasten.tips/,nl
https://fifapointskopen.nl,nl
https://www.nieuwegokkasten.eu/,nl
https://www.casinoswijzer.nl,nl
http://www.banenbijbedrijven.nl,nl
https://www.vcacursus.org/vca-certificering/,nl
https://www.onlinelivecasino.tips/live-roulette-bonus/,nl
https://www.mediumchat.nl,nl
https://www.koddie.nl/schommelstoel-baby-kopen-tips/,nl
http://geboortekaartjesonline.be/,nl
https://www.bellakids.nl/product-categorie/kraamcadeau-met-naam/,nl
https://www.de50plusser.nl/,nl
https://www.vijftigplusdating.nl,nl
http://www.speedydating.nl,other
https://www.topmediums.nl,nl
http://www.spirituele-energie.nl/engelenkaart/,nl
http://relatiescanner.nl,nl
http://sibrenontwikkelt.nl/,nl
http://gratisdaghoroscoopvandaag.nl/sterrenbeelden/,nl
https://topslotenmaker.nl,nl
https://www.slotenmaker123.be/slotenmaker-leuven/,nl
http://www.dakkapel-prijzen-vergelijken.nl/,nl
https://www.raamwinkel.be/nl/aluminium-ramen,nl
http://www.dakkapel-maken.nl/,other
https://slotenmakerdaniel.be/slotenmaker-leuven/,nl
https://www.deurmatdirect.nl,nl
https://magneetjeswinkel.nl,nl
http://www.steenstrips.net/,nl
https://www.boormachinevergelijken.nl,nl
https://www.decoupeerzaagkopen.nl,nl
https://www.schuurmachineskopen.nl,nl
https://www.dakdekker-concurrent.nl/,nl
https://www.tresna.nl,nl
https://www.brand-solide.nl/hardhout,nl
https://www.klesto.nl,nl
http://www.opruimcoach-denhaag.nl/,other
https://www.royalgrass-kunstgras.nl/kunstgras/zwolle/,nl
http://witgoedreview.nl,nl
https://www.xura.nl,nl
https://www.deglascentrale.nl/glashandel-breda/,nl
https://www.deurenshop.com/product/argenta-invisidoor/,nl
http://www.vaatwasservergelijk.nl,other
http://www.stuc-concurrent.nl/klus-plaatsen/,nl
https://www.consupedia.nl/beste-waterkoker/,nl
https://koffiemachine.org,nl
https://zoofy.nl/loodgieter/amsterdam/,nl
https://www.zitzakkenkampioen.nl/,nl
https://www.cassenz.nl/,nl
https://www.hoofdkussen.com,nl
https://www.goedkoopsteelectrischeboxspring.nl/product-categorie/dekbedovertrek/,nl
https://www.vochtexpert.com/,nl
https://www.kunstgrasoutletgroningen.nl,nl
https://onderhoudsvrijetuin.nl,nl
http://www.tuinhuis-site.nl,nl
https://www.robotmaaiervergelijken.nl,nl
http://verandainfo.be,nl
https://www.tuinonderhoudfieten.nl,nl
https://www.verhuizeninfo.nl/,nl
http://ledstripxpert.nl/led-profiel,other
http://www.euron-kachels.nl,other
https://www.haardenexpress.nl,nl
https://www.pelletkachels.nu,nl
https://www.pelletkachels.nl,nl
https://www.kunstgrasvoordeel.nl/kunstgras-zwolle/,nl
https://www.eggergratisgelegd.nl,nl
https://pvcvloerengenemuiden.nl,nl
https://www.quickstepgratisgelegd.nl,nl
https://www.pvc-aanbieding.nl,nl
https://www.balteriogratisgelegd.nl,nl
https://domicus.nl/,nl
https://www.douwesdekkergratisgelegd.nl,nl
https://www.lingerog.com/makelaar-amsterdam/,nl
https://www.gratis-stalen.nl,nl
https://slotenmakersindenhaag.nl/,nl
https://www.portesinterieures.be,other
https://www.visumaanvragen.org,nl
http://www.chaletverhuur.nl,other
https://www.meistergratisgelegd.nl,nl
https://www.campings.nl,nl
http://www.PoppyHostelCuracao.com,other
http://www.overnachtenfrankrijk.nl/hotel-ketens/formule-1-hotel-frankrijk/,nl
http://Florence-Apartment.org,other
https://www.romantisch-weekendjeweg.nl/,nl
https://cruiseweb.nl,nl
https://eazzypark.nl/,nl
https://www.hotelspecials.nl/nl/noord-holland/amsterdam,nl
http://www.actiecode-reizen.nl,nl
http://www.goedkoperondreis.com/,nl
https://www.lang-parkeren-schiphol.nl/,nl
https://pretaxi.nl/,nl
https://schipholparkeren.com,nl
https://www.vliegtuigvluchtvolgen.nl/,nl
https://www.witropatravel.com,nl
http://www.ontdekijsland.nl,nl
https://www.spanjediscounter.nl,nl
https://www.flydrivereizen.nl/europa/spanje/andalusie/,nl
http://www.mevoreizen.nl/transsiberie-express/,nl
https://parkos.nl/parkeren-schiphol/,nl
https://www.vliegvakantie-spanje.nl/vliegvakantie-mallorca/,nl
https://www.stedentripper.com,nl
https://www.allinclusive-spanje.nl/,nl
https://www.visumonlineturkije.nl/,nl
https://vakantieboeken.nl,nl
https://www.vakantieparkmagazine.nl,nl
https://www.vakantiehuisjes.nl,nl
https://www.vakantieparken.net,nl
https://goedkoop-vliegen.nl,nl
https://clubcanary.com/nl/,nl
https://www.floridarentalbyowners.com,other
http://www.crisisinformatie.nl,other
https://www.top10uitjes.nl/,nl
https://www.koningkaart.nl/trouwkaarten,nl
http://www.horoscopen.nu,nl
https://taxiluchthavenservice.nl,nl
http://netelroos.net,nl
https://noslinks.wordpress.com/,nl
http://www.vouchercodes24.nl/bax-shop-nl/,nl
https://spirituelecommunity.nl,nl
http://www.kefirplantje.eu/,nl
http://www.komboecha.eu/,nl
https://www.medicijndokter.com/soa/condyline-kopen-zonder-recept/,nl
https://www.cbddrogist.nl/,nl
http://www.medicijnkopen.com/cgi-sys/defaultwebpage.cgi,other
http://afvallenmet.biz/afvallen-met-shakes.php,nl
https://www.verloskundigenede.nl/borstvoeding-lactatiekunde/,nl
https://primaire-reflexen-nanco.nl/reflextherapie/,nl
http://www.vasculairedementie.info,other
https://vitaalgezond.com/narcistische-moeder,nl
http://www.lijnwijzer.nl,other
http://groenekoffie.info,nl
https://www.zwoofs.nl/e-smoker-kopen-bij-zwoofs,nl
http://dheakopen.nl,nl
https://www.mnlk.nl,nl
http://coachnl.com/,other
http://snelafvallenmethode.nl,other
https://anti-aging-labs.nl,nl
http://ziekenhuisdieet.biz/,other
https://coronavirusinnederland.nl,nl
https://www.schimmelinfectie.nl/,nl
http://www.cgraad.nl/itraconazol-kopen/,nl
http://www.kamagra-bestellen-kamagra-oraljelly.nl/,nl
https://wc-krukje.nl,nl
http://www.kamagra-cialis-erectiepillen.nl/,nl
https://www.orthocor.nl/,nl
https://bmi-uitrekenen.com/,nl
https://doorbraakbloeding.nl,nl
https://www.snurkexpert.nl,nl
http://www.eurosmoker.nl/e-liquid/,nl
http://www.nustoppenmetroken.nl,other
http://www.tandartsleidschendam.nl,other
https://esigaretonline.nl/,nl
http://www.tikkieondeugend.nl/,nl
http://tintelendehanden.nl/,nl
https://www.berekenbevallingsdatum.nl,nl
http://dheashop.nl/,nl
https://www.zorgverzekeringkiezen.nl/,nl
http://www.sieradenvanstraatsburg.com,nl
http://www.ideeart.nl,nl
https://voedingschema.nl,nl
https://www.youtube.com/watch?v=U-KkBZBIQIY,other
https://donkermedia.nl/,nl
https://www.yourproductions.nl/,nl
https://www.playanote.nl/,nl
https://www.dailybase.nl,nl
https://www.bucketlistconcerts.nl/,nl
http://www.triojazztraffic.nl/,nl
https://www.vlogstudio.nl,nl
http://onedirectionfanclub.nl,nl
https://www.zelfgitaarlerenspelen.nl/,nl
https://www.indexsite.nl,nl
https://pianowebsite.nl,nl
http://hondenverzekeringnederland.nl,nl
https://hondenmandenstore.nl/,nl
http://www.huisdierenverzekeringkiezen.nl/,nl
https://www.hondenvoerkiezen.nl,nl
http://www.policedogscentre.com,other
http://www.obobo.nl,nl
https://www.leeronlinepiano.nl,nl
https://123ruitersport.nl/backontrack.html,nl
https://vijverwereld.com,nl
http://schnauzerdeild.com,other
https://www.opleidingdex.nl,nl
http://schoolwiz.nl/,other
https://www.vcacursus.nl,nl
https://www.vca-cursus.com/locatie,nl
https://www.atexcertificaat.nl,nl
https://nederland-75-jaar-bevrijd.webnode.nl,nl
https://www.toetsjekennis.nl,nl
https://www.bhvnederland.nl,nl
https://www.oefentoets.com/,nl
http://www.blackheadmasker.com/,nl
https://katsnails.nl,nl
https://glorysmile.nl,nl
https://www.mijnonesie.nl/,nl
https://www.mogadorcosmetics.nl/arganolie/,nl
https://www.amazingkids.nl/,nl
http://www.uggelicious.nl/,nl
http://hm-kortingscode.nl,nl
https://www.parfumerie.nl/parfum,nl
https://www.goedkopeparfum.nl/,nl
https://www.schoenen.nl/dames/sneakers,nl
https://www.iparfum.nl,nl
https://palladiumboots.eu/,other
https://altenagala.nl,nl
http://www.aspergeskoken.nl,nl
https://www.appeltaartrecept.info/,nl
http://gebakoftaartbestellen.nl,nl
https://www.chiliconcarne.info/,nl
https://www.hapjes.info/,nl
https://www.oliebollenrecept.info/,nl
http://www.bier-aanbiedingen.net/,nl
https://www.maaltijdsalade.info/,nl
https://www.aspergeskoken.net/,nl
https://www.pasta-carbonara.info/,nl
https://www.receptenkoken.nl/,nl
http://www.smoothie.nl,nl
https://www.mosselenkoken.nl/,nl
https://www.creditcardvergelijken.nl,nl
https://www.groenten.info,nl
http://kefirkorrels.nl,nl
https://www.sapcentrifuge.info,nl
https://www.wentelteefjesrecept.info/,nl
https://www.cake-recept.nl,nl
https://www.magnetrongigant.com/,nl
https://www.courgettesoep.info,nl
http://www.tsandzandvoort.nl,other
https://www.erwtensoeprecept.info/,nl
https://www.nutsupply.com/nl/noten/,nl
http://www.topescortamsterdam.com,other
https://www.pompoensoep.org,nl
https://www.pinterest.com/kefirkorrels/melkkefir-zelf-kefir-maken/,nl
http://www.visumaustralie.com,nl
https://www.abelswijnen.nl/chardonnay,nl
https://www.wijnhouse.nl/,nl
https://www.zonnepanelenkopen.be/zonnepanelen-kopen/prijs/,nl
https://www.worktalia.com/,nl
https://www.epcattest.be/,nl
https://www.relaxhomes.com/nl,nl
https://vandaagwonen.be/prijs-epc-attest-epc-keuring/,nl
https://www.spanje-vakantiewoningen.be/nl,nl
https://www.vakantiehuiszwartewoud.be/nl,nl
https://www.provencevakantiewoningen.be/nl,nl
https://www.daklatenontmossen.be/,nl
https://www.waterverzachter.net,nl
https://www.alarmbeveiliging.net/alarmsysteem-alarminstallatie/,nl
https://www.opritaanleg.be,nl
https://www.schoonmaakkosten.be,nl
https://www.vocht.be,nl
https://www.bandenstelling.be,nl
https://www.lift.be/huislift-platformlift/,nl
https://www.palletstelling-palletrek.be/,nl
https://www.betaalterminalhuren.be/,nl
https://www.dakisolatieplaatsen.be/,nl
https://www.zwembadaanleg.net/,nl
https://www.tankkaart.net,nl
https://www.gemeenteofferte.be/gemeente/vochtbestrijding-9000-gent/,nl
https://www.telefooncentrale.net,nl
https://www.dakrenoveren.net/,nl
https://www.nieuweveranda.net/,nl
https://www.zonweringprijs.be,nl
https://www.zonneboileradvies.be/,nl
https://www.renovatiegevels.be/gevelrenovatie/,nl
https://www.onderhoudverwarmingsketels.be/,nl
https://www.elektriciteitswerk.be/,nl
https://www.buitenmuurisoleren.be/spouwmuurisolatie/,nl
https://www.warmtepompverwarming.net/,nl
https://www.badkamerrenovatie.net,nl
https://www.nieuweramen.net/pvc-ramen/,nl
https://www.waterkoeler.net/,nl
https://www.binnenbeglazing.be/glazen-deuren/,nl
https://www.tuinaanleggen.net/,nl
https://www.afvoerontstoppen.net/,nl
https://www.elektriciteitsleverancier.be/energieleveranciers/,nl
https://www.airco-installatie.be/,nl
https://www.traplatenmaken.be/,nl
https://www.gyproclatenplaatsen.be/,nl
https://www.elektrische-radiatoren.be/,nl
https://www.houten-bijgebouw.be/,nl
https://www.nieuwecvketel.be/,nl
https://www.callcenteradvies.be/,nl
https://www.asbestlatenverwijderen.net/,nl
https://www.spanplafondadvies.be/,nl
https://www.incassobureaugids.be/,nl
https://www.spuitkurkgevels.be/,nl
https://www.laadpaalelektrischeauto.be/,nl
https://www.vloerwerken-tegelwerken.be/,nl
http://www.marktplaza.be/,nl
http://www.brandstofprijzen.be/,other
http://www.google.com,nl
http://www.huisarts.be/dringend.htm,nl
http://www.games.be/,other
http://www.mijngame.nl,nl
http://www.lastminute-reizen-turkije.be,nl
https://www.reisroutes.be/blog/reisinfo/parkeren-luchthaven-zaventem/,nl
https://shop.themediabay.be/nl/,nl
http://www.cabaretplein.nl/cgi-sys/defaultwebpage.cgi,other
http://www.dehumorsite.be,other
http://www.out2night.be,nl
http://zionmedia.be/online-marketing/,nl
https://www.maf.team/,nl
https://fr.meetic.be/,other
https://www.hemdvoorhem.nl/herensokken,nl
http://www.eurodb.be/scriptsPublic/arianeweb.dll/n/M_MKT_RECH?partId=kmo,nl
https://www.betonnentrap.net,nl
http://www.detuingids.be,other
http://googleaffiliatenetwork-blog.blogspot.com/2013/04/an-update-on-google-affiliate-network.html,other
